Creating a Line Plot
…
Mapping variables to line plots

If you are interested in the average growth of chicks for the different diets, you must first summarize data.

ChickWeightMean <- ChickWeight %>% 
  group_by(Time, Diet) %>% 
  summarize(weight=mean(weight))
ChickWeightMean

## Source: local data frame [48 x 3]
## Groups: Time [?]
## 
##     Time   Diet   weight
##    <dbl> <fctr>    <dbl>
## 1      0      1 41.40000
## 2      0      2 40.70000
## 3      0      3 40.80000
## 4      0      4 41.00000
## 5      2      1 47.25000
## 6      2      2 49.40000
## 7      2      3 50.40000
## 8      2      4 51.80000
## 9      4      1 56.47368
## 10     4      2 59.80000
## # ... with 38 more rows
…
