…
```r
require(dplyr)
```

The examples of this chapter will refer to `bank` data set which contains information about a direct marketing campaigns of a Portuguese banking institution based on phone calls. 


```r
require(qdata)
data(bank) 
bank
```

```
## # A tibble: 45,211 × 20
##       id   age          job  marital education default balance housing
##    <int> <int>       <fctr>   <fctr>    <fctr>  <fctr>   <int>  <fctr>
## 1      1    58   management  married  tertiary      no    2143     yes
## 2      2    44   technician   single secondary      no      29     yes
## 3      3    33 entrepreneur  married secondary      no       2     yes
## 4      4    47  blue-collar  married   unknown      no    1506     yes
## 5      5    33      unknown   single   unknown      no       1      no
## 6      6    35   management  married  tertiary      no     231     yes
## 7      7    28   management   single  tertiary      no     447     yes
## 8      8    42 entrepreneur divorced  tertiary     yes       2     yes
## 9      9    58      retired  married   primary      no     121     yes
## 10    10    43   technician   single secondary      no     593     yes
## # ... with 45,201 more rows, and 12 more variables: loan <fctr>,
## #   contact <fctr>, day <int>, month <fctr>, year <int>, date <dttm>,
## #   duration <int>, campaign <int>, pdays <int>, previous <int>,
## #   poutcome <fctr>, y <fctr>
```
…
```r
# Select columns: year, month and day of bank data frame
select(bank, year, month, day)
```

```
## # A tibble: 45,211 × 3
##     year  month   day
##    <int> <fctr> <int>
## 1   2008    may     5
## 2   2008    may     5
## 3   2008    may     5
## 4   2008    may     5
## 5   2008    may     5
## 6   2008    may     5
## 7   2008    may     5
## 8   2008    may     5
## 9   2008    may     5
## 10  2008    may     5
## # ... with 45,201 more rows
```

```r
# Select columns: year, month and day of bank data frame
bank %>% select(year:day)
```

```
## # A tibble: 45,211 × 3
##     year  month   day
##    <int> <fctr> <int>
## 1   2008    may     5
## 2   2008    may     5
## 3   2008    may     5
## 4   2008    may     5
## 5   2008    may     5
## 6   2008    may     5
## 7   2008    may     5
## 8   2008    may     5
## 9   2008    may     5
## 10  2008    may     5
## # ... with 45,201 more rows
```

```r
# Select all columns of bank data frame apart from: year, month and day
bank %>% select(-(year:day))
```

```
## # A tibble: 45,211 × 17
##       id   age          job  marital education default balance housing
##    <int> <int>       <fctr>   <fctr>    <fctr>  <fctr>   <int>  <fctr>
## 1      1    58   management  married  tertiary      no    2143     yes
## 2      2    44   technician   single secondary      no      29     yes
## 3      3    33 entrepreneur  married secondary      no       2     yes
## 4      4    47  blue-collar  married   unknown      no    1506     yes
## 5      5    33      unknown   single   unknown      no       1      no
## 6      6    35   management  married  tertiary      no     231     yes
## 7      7    28   management   single  tertiary      no     447     yes
## 8      8    42 entrepreneur divorced  tertiary     yes       2     yes
## 9      9    58      retired  married   primary      no     121     yes
## 10    10    43   technician   single secondary      no     593     yes
## # ... with 45,201 more rows, and 9 more variables: loan <fctr>,
## #   contact <fctr>, date <dttm>, duration <int>, campaign <int>,
## #   pdays <int>, previous <int>, poutcome <fctr>, y <fctr>
```

You can rename variables with `select()` by using named arguments:


```r
# Rename id variable as ID
bank %>% select(ID = id)
```

```
## # A tibble: 45,211 × 1
##       ID
##    <int>
## 1      1
## 2      2
## 3      3
## 4      4
## 5      5
## 6      6
## 7      7
## 8      8
## 9      9
## 10    10
## # ... with 45,201 more rows
```
…
```r
# Filter all calls made to people whose job is admin. or technician in bank data frame
bank %>% filter(job %in% c("admin.","technician"))
```

```
## # A tibble: 12,768 × 20
##       id   age        job  marital education default balance housing
##    <int> <int>     <fctr>   <fctr>    <fctr>  <fctr>   <int>  <fctr>
## 1      2    44 technician   single secondary      no      29     yes
## 2     10    43 technician   single secondary      no     593     yes
## 3     11    41     admin. divorced secondary      no     270     yes
## 4     12    29     admin.   single secondary      no     390     yes
## 5     13    53 technician  married secondary      no       6     yes
## 6     14    58 technician  married   unknown      no      71     yes
## 7     17    45     admin.   single   unknown      no      13     yes
## 8     26    44     admin.  married secondary      no    -372     yes
## 9     30    36 technician   single secondary      no     265     yes
## 10    31    57 technician  married secondary      no     839      no
## # ... with 12,758 more rows, and 12 more variables: loan <fctr>,
## #   contact <fctr>, day <int>, month <fctr>, year <int>, date <dttm>,
## #   duration <int>, campaign <int>, pdays <int>, previous <int>,
## #   poutcome <fctr>, y <fctr>
```

```r
# Filter all calls made to people whose job is admin. or technician in bank data frame
bank %>% filter(job == "admin." | job == "technician")
```

```
## # A tibble: 12,768 × 20
##       id   age        job  marital education default balance housing
##    <int> <int>     <fctr>   <fctr>    <fctr>  <fctr>   <int>  <fctr>
## 1      2    44 technician   single secondary      no      29     yes
## 2     10    43 technician   single secondary      no     593     yes
## 3     11    41     admin. divorced secondary      no     270     yes
## 4     12    29     admin.   single secondary      no     390     yes
## 5     13    53 technician  married secondary      no       6     yes
## 6     14    58 technician  married   unknown      no      71     yes
## 7     17    45     admin.   single   unknown      no      13     yes
## 8     26    44     admin.  married secondary      no    -372     yes
## 9     30    36 technician   single secondary      no     265     yes
## 10    31    57 technician  married secondary      no     839      no
## # ... with 12,758 more rows, and 12 more variables: loan <fctr>,
## #   contact <fctr>, day <int>, month <fctr>, year <int>, date <dttm>,
## #   duration <int>, campaign <int>, pdays <int>, previous <int>,
## #   poutcome <fctr>, y <fctr>
```
…
```r
# Order `bank` data frame by the balance of the account in ascending order
arrange(bank, balance)
```

```
## # A tibble: 45,211 × 20
##       id   age           job  marital education default balance housing
##    <int> <int>        <fctr>   <fctr>    <fctr>  <fctr>   <int>  <fctr>
## 1  12910    26   blue-collar   single secondary     yes   -8019      no
## 2  15683    49    management  married  tertiary     yes   -6847      no
## 3  38737    60    management divorced  tertiary      no   -4057     yes
## 4   7414    43    management  married  tertiary     yes   -3372     yes
## 5   1897    57 self-employed  married  tertiary     yes   -3313     yes
## 6  32714    39 self-employed  married  tertiary      no   -3058     yes
## 7  18574    40    technician  married  tertiary     yes   -2827     yes
## 8  31510    52    management  married  tertiary      no   -2712     yes
## 9  25120    49   blue-collar   single   primary     yes   -2604     yes
## 10 14435    51    management divorced  tertiary      no   -2282     yes
## # ... with 45,201 more rows, and 12 more variables: loan <fctr>,
## #   contact <fctr>, day <int>, month <fctr>, year <int>, date <dttm>,
## #   duration <int>, campaign <int>, pdays <int>, previous <int>,
## #   poutcome <fctr>, y <fctr>
```



```r
# Order `bank` data frame by the balance of the account in descending order
bank %>% arrange(desc(balance))
```

```
## # A tibble: 45,211 × 20
##       id   age          job  marital education default balance housing
##    <int> <int>       <fctr>   <fctr>    <fctr>  <fctr>   <int>  <fctr>
## 1  39990    51   management   single  tertiary      no  102127      no
## 2  26228    59   management  married  tertiary      no   98417      no
## 3  42559    84      retired  married secondary      no   81204      no
## 4  43394    84      retired  married secondary      no   81204      no
## 5  41694    60      retired  married   primary      no   71188      no
## 6  19786    56   management divorced  tertiary      no   66721      no
## 7  21193    52  blue-collar  married   primary      no   66653      no
## 8  19421    59       admin.  married   unknown      no   64343      no
## 9  41375    32 entrepreneur   single  tertiary      no   59649      no
## 10 12927    56  blue-collar  married secondary      no   58932      no
## # ... with 45,201 more rows, and 12 more variables: loan <fctr>,
## #   contact <fctr>, day <int>, month <fctr>, year <int>, date <dttm>,
## #   duration <int>, campaign <int>, pdays <int>, previous <int>,
## #   poutcome <fctr>, y <fctr>
```



```r
# Order `bank` data frame by age of the client and by the balance of the account in descending order
bank %>% arrange(age, desc(balance))
```

```
## # A tibble: 45,211 × 20
##       id   age     job marital education default balance housing   loan
##    <int> <int>  <fctr>  <fctr>    <fctr>  <fctr>   <int>  <fctr> <fctr>
## 1  40737    18 student  single   primary      no    1944      no     no
## 2  40888    18 student  single   primary      no     608      no     no
## 3  42275    18 student  single   primary      no     608      no     no
## 4  44645    18 student  single   unknown      no     438      no     no
## 5  43638    18 student  single   unknown      no     348      no     no
## 6  42147    18 student  single secondary      no     156      no     no
## 7  40745    18 student  single   unknown      no     108      no     no
## 8  41488    18 student  single   unknown      no     108      no     no
## 9  42955    18 student  single   unknown      no     108      no     no
## 10 41223    18 student  single   unknown      no      35      no     no
## # ... with 45,201 more rows, and 11 more variables: contact <fctr>,
## #   day <int>, month <fctr>, year <int>, date <dttm>, duration <int>,
## #   campaign <int>, pdays <int>, previous <int>, poutcome <fctr>, y <fctr>
```
…
```r
# generate a variable indicating the total number of times each person has been contacted 
# during this campaign and during the previous ones 
mutate(bank, contacts_n = campaign + previous)
```

```
## # A tibble: 45,211 × 21
##       id   age          job  marital education default balance housing
##    <int> <int>       <fctr>   <fctr>    <fctr>  <fctr>   <int>  <fctr>
## 1      1    58   management  married  tertiary      no    2143     yes
## 2      2    44   technician   single secondary      no      29     yes
## 3      3    33 entrepreneur  married secondary      no       2     yes
## 4      4    47  blue-collar  married   unknown      no    1506     yes
## 5      5    33      unknown   single   unknown      no       1      no
## 6      6    35   management  married  tertiary      no     231     yes
## 7      7    28   management   single  tertiary      no     447     yes
## 8      8    42 entrepreneur divorced  tertiary     yes       2     yes
## 9      9    58      retired  married   primary      no     121     yes
## 10    10    43   technician   single secondary      no     593     yes
## # ... with 45,201 more rows, and 13 more variables: loan <fctr>,
## #   contact <fctr>, day <int>, month <fctr>, year <int>, date <dttm>,
## #   duration <int>, campaign <int>, pdays <int>, previous <int>,
## #   poutcome <fctr>, y <fctr>, contacts_n <int>
```

`mutate()` allows you to refer to columns that you just created:


```r
# generate two variable: one indicating the year of birth and one the year of birth without century 
bank %>% mutate(year_of_birth = year - age, year_of_birth_no_century = year_of_birth - 1900)
```

```
## # A tibble: 45,211 × 22
##       id   age          job  marital education default balance housing
##    <int> <int>       <fctr>   <fctr>    <fctr>  <fctr>   <int>  <fctr>
## 1      1    58   management  married  tertiary      no    2143     yes
## 2      2    44   technician   single secondary      no      29     yes
## 3      3    33 entrepreneur  married secondary      no       2     yes
## 4      4    47  blue-collar  married   unknown      no    1506     yes
## 5      5    33      unknown   single   unknown      no       1      no
## 6      6    35   management  married  tertiary      no     231     yes
## 7      7    28   management   single  tertiary      no     447     yes
## 8      8    42 entrepreneur divorced  tertiary     yes       2     yes
## 9      9    58      retired  married   primary      no     121     yes
## 10    10    43   technician   single secondary      no     593     yes
## # ... with 45,201 more rows, and 14 more variables: loan <fctr>,
## #   contact <fctr>, day <int>, month <fctr>, year <int>, date <dttm>,
## #   duration <int>, campaign <int>, pdays <int>, previous <int>,
## #   poutcome <fctr>, y <fctr>, year_of_birth <int>,
## #   year_of_birth_no_century <dbl>
```
…
