…
```r
require(dplyr)
```

In the following examples, we will refer to `bank` data set. 


```r
require(qdata)
data(bank)
bank
```

```
## # A tibble: 45,211 × 20
##       id   age          job  marital education default balance housing
##    <int> <int>       <fctr>   <fctr>    <fctr>  <fctr>   <int>  <fctr>
## 1      1    58   management  married  tertiary      no    2143     yes
## 2      2    44   technician   single secondary      no      29     yes
## 3      3    33 entrepreneur  married secondary      no       2     yes
## 4      4    47  blue-collar  married   unknown      no    1506     yes
## 5      5    33      unknown   single   unknown      no       1      no
## 6      6    35   management  married  tertiary      no     231     yes
## 7      7    28   management   single  tertiary      no     447     yes
## 8      8    42 entrepreneur divorced  tertiary     yes       2     yes
## 9      9    58      retired  married   primary      no     121     yes
## 10    10    43   technician   single secondary      no     593     yes
## # ... with 45,201 more rows, and 12 more variables: loan <fctr>,
## #   contact <fctr>, day <int>, month <fctr>, year <int>, date <dttm>,
## #   duration <int>, campaign <int>, pdays <int>, previous <int>,
## #   poutcome <fctr>, y <fctr>
```
…
