…
```
## [1] "tbl_df"     "tbl"        "data.frame"
```

```r
mtcars_tbl
```

```
## # A tibble: 32 × 11
##      mpg   cyl  disp    hp  drat    wt  qsec    vs    am  gear  carb
## *  <dbl> <dbl> <dbl> <dbl> <dbl> <dbl> <dbl> <dbl> <dbl> <dbl> <dbl>
## 1   21.0     6 160.0   110  3.90 2.620 16.46     0     1     4     4
## 2   21.0     6 160.0   110  3.90 2.875 17.02     0     1     4     4
## 3   22.8     4 108.0    93  3.85 2.320 18.61     1     1     4     1
## 4   21.4     6 258.0   110  3.08 3.215 19.44     1     0     3     1
## 5   18.7     8 360.0   175  3.15 3.440 17.02     0     0     3     2
## 6   18.1     6 225.0   105  2.76 3.460 20.22     1     0     3     1
## 7   14.3     8 360.0   245  3.21 3.570 15.84     0     0     3     4
## 8   24.4     4 146.7    62  3.69 3.190 20.00     1     0     4     2
## 9   22.8     4 140.8    95  3.92 3.150 22.90     1     0     4     2
## 10  19.2     6 167.6   123  3.92 3.440 18.30     1     0     4     4
## # ... with 22 more rows
```
…
The first argument is the name of the data frame, and the second and subsequent are the name of column/s of that data frame you want to select:


```r
# Select columns: year, month and day of bank data frame
select(bank, year, month, day)
```

```
## # A tibble: 45,211 × 3
##     year  month   day
##    <int> <fctr> <int>
## 1   2008    may     5
## 2   2008    may     5
## 3   2008    may     5
## 4   2008    may     5
## 5   2008    may     5
## 6   2008    may     5
## 7   2008    may     5
## 8   2008    may     5
## 9   2008    may     5
## 10  2008    may     5
## # ... with 45,201 more rows
```

```r
# Select columns: year, month and day of bank data frame
bank %>% select(year:day)
```

```
## # A tibble: 45,211 × 3
##     year  month   day
##    <int> <fctr> <int>
## 1   2008    may     5
## 2   2008    may     5
## 3   2008    may     5
## 4   2008    may     5
## 5   2008    may     5
## 6   2008    may     5
## 7   2008    may     5
## 8   2008    may     5
## 9   2008    may     5
## 10  2008    may     5
## # ... with 45,201 more rows
```

```r
# Select all columns of bank data frame apart from: year, month and day
bank %>% select(-(year:day))
```

```
## # A tibble: 45,211 × 17
##       id   age          job  marital education default balance housing   loan contact       date duration
##    <int> <int>       <fctr>   <fctr>    <fctr>  <fctr>   <int>  <fctr> <fctr>  <fctr>     <dttm>    <int>
## 1      1    58   management  married  tertiary      no    2143     yes     no unknown 2008-05-05      261
## 2      2    44   technician   single secondary      no      29     yes     no unknown 2008-05-05      151
## 3      3    33 entrepreneur  married secondary      no       2     yes    yes unknown 2008-05-05       76
## 4      4    47  blue-collar  married   unknown      no    1506     yes     no unknown 2008-05-05       92
## 5      5    33      unknown   single   unknown      no       1      no     no unknown 2008-05-05      198
## 6      6    35   management  married  tertiary      no     231     yes     no unknown 2008-05-05      139
## 7      7    28   management   single  tertiary      no     447     yes    yes unknown 2008-05-05      217
## 8      8    42 entrepreneur divorced  tertiary     yes       2     yes     no unknown 2008-05-05      380
## 9      9    58      retired  married   primary      no     121     yes     no unknown 2008-05-05       50
## 10    10    43   technician   single secondary      no     593     yes     no unknown 2008-05-05       55
## # ... with 45,201 more rows, and 5 more variables: campaign <int>, pdays <int>, previous <int>,
## #   poutcome <fctr>, y <fctr>
```


You can rename variables with `select()` by using named arguments:


```r
# Rename id variable as ID
bank %>% select(ID = id)
```

```
## # A tibble: 45,211 × 1
##       ID
##    <int>
## 1      1
## 2      2
## 3      3
## 4      4
## 5      5
## 6      6
## 7      7
## 8      8
## 9      9
## 10    10
## # ... with 45,201 more rows
```
…
An other example is:


```r
# Select all calls made to people whose job is admin. or technician 
bank %>% filter(job %in% c("admin.","technician"))
```

```
## # A tibble: 12,768 × 20
##       id   age        job  marital education default balance housing   loan contact   day  month  year
##    <int> <int>     <fctr>   <fctr>    <fctr>  <fctr>   <int>  <fctr> <fctr>  <fctr> <int> <fctr> <int>
## 1      2    44 technician   single secondary      no      29     yes     no unknown     5    may  2008
## 2     10    43 technician   single secondary      no     593     yes     no unknown     5    may  2008
## 3     11    41     admin. divorced secondary      no     270     yes     no unknown     5    may  2008
## 4     12    29     admin.   single secondary      no     390     yes     no unknown     5    may  2008
## 5     13    53 technician  married secondary      no       6     yes     no unknown     5    may  2008
## 6     14    58 technician  married   unknown      no      71     yes     no unknown     5    may  2008
## 7     17    45     admin.   single   unknown      no      13     yes     no unknown     5    may  2008
## 8     26    44     admin.  married secondary      no    -372     yes     no unknown     5    may  2008
## 9     30    36 technician   single secondary      no     265     yes    yes unknown     5    may  2008
## 10    31    57 technician  married secondary      no     839      no    yes unknown     5    may  2008
## # ... with 12,758 more rows, and 7 more variables: date <dttm>, duration <int>, campaign <int>,
## #   pdays <int>, previous <int>, poutcome <fctr>, y <fctr>
```

```r
# Select all calls made to people whose job is admin. or technician 
bank %>% filter(job == "admin." | job == "technician")
```

```
## # A tibble: 12,768 × 20
##       id   age        job  marital education default balance housing   loan contact   day  month  year
##    <int> <int>     <fctr>   <fctr>    <fctr>  <fctr>   <int>  <fctr> <fctr>  <fctr> <int> <fctr> <int>
## 1      2    44 technician   single secondary      no      29     yes     no unknown     5    may  2008
## 2     10    43 technician   single secondary      no     593     yes     no unknown     5    may  2008
## 3     11    41     admin. divorced secondary      no     270     yes     no unknown     5    may  2008
## 4     12    29     admin.   single secondary      no     390     yes     no unknown     5    may  2008
## 5     13    53 technician  married secondary      no       6     yes     no unknown     5    may  2008
## 6     14    58 technician  married   unknown      no      71     yes     no unknown     5    may  2008
## 7     17    45     admin.   single   unknown      no      13     yes     no unknown     5    may  2008
## 8     26    44     admin.  married secondary      no    -372     yes     no unknown     5    may  2008
## 9     30    36 technician   single secondary      no     265     yes    yes unknown     5    may  2008
## 10    31    57 technician  married secondary      no     839      no    yes unknown     5    may  2008
## # ... with 12,758 more rows, and 7 more variables: date <dttm>, duration <int>, campaign <int>,
## #   pdays <int>, previous <int>, poutcome <fctr>, y <fctr>
```
…
The first argument is the name of the data frame, and the second and subsequent are the name of columns of that data frame you want to order by.  
You may want to order the `bank` data frame by the balance of the account in ascending order:


```r
arrange(bank, balance)
```

```
## # A tibble: 45,211 × 20
##       id   age           job  marital education default balance housing   loan  contact   day  month  year
##    <int> <int>        <fctr>   <fctr>    <fctr>  <fctr>   <int>  <fctr> <fctr>   <fctr> <int> <fctr> <int>
## 1  12910    26   blue-collar   single secondary     yes   -8019      no    yes cellular     7    jul  2008
## 2  15683    49    management  married  tertiary     yes   -6847      no    yes cellular    21    jul  2008
## 3  38737    60    management divorced  tertiary      no   -4057     yes     no cellular    18    may  2009
## 4   7414    43    management  married  tertiary     yes   -3372     yes     no  unknown    29    may  2008
## 5   1897    57 self-employed  married  tertiary     yes   -3313     yes    yes  unknown     9    may  2008
## 6  32714    39 self-employed  married  tertiary      no   -3058     yes    yes cellular    17    apr  2009
## 7  18574    40    technician  married  tertiary     yes   -2827     yes    yes cellular    31    jul  2008
## 8  31510    52    management  married  tertiary      no   -2712     yes    yes cellular     2    apr  2009
## 9  25120    49   blue-collar   single   primary     yes   -2604     yes     no cellular    18    nov  2008
## 10 14435    51    management divorced  tertiary      no   -2282     yes    yes cellular    14    jul  2008
## # ... with 45,201 more rows, and 7 more variables: date <dttm>, duration <int>, campaign <int>,
## #   pdays <int>, previous <int>, poutcome <fctr>, y <fctr>
```

or in descending order by using function `desc()` within `arrange()`: 


```r
bank %>% arrange(desc(balance))
```

```
## # A tibble: 45,211 × 20
##       id   age          job  marital education default balance housing   loan   contact   day  month  year
##    <int> <int>       <fctr>   <fctr>    <fctr>  <fctr>   <int>  <fctr> <fctr>    <fctr> <int> <fctr> <int>
## 1  39990    51   management   single  tertiary      no  102127      no     no  cellular     3    jun  2009
## 2  26228    59   management  married  tertiary      no   98417      no     no telephone    20    nov  2008
## 3  42559    84      retired  married secondary      no   81204      no     no telephone    28    dec  2009
## 4  43394    84      retired  married secondary      no   81204      no     no telephone     1    apr  2010
## 5  41694    60      retired  married   primary      no   71188      no     no  cellular     6    oct  2009
## 6  19786    56   management divorced  tertiary      no   66721      no     no  cellular     8    aug  2008
## 7  21193    52  blue-collar  married   primary      no   66653      no     no  cellular    14    aug  2008
## 8  19421    59       admin.  married   unknown      no   64343      no     no  cellular     6    aug  2008
## 9  41375    32 entrepreneur   single  tertiary      no   59649      no     no  cellular     1    sep  2009
## 10 12927    56  blue-collar  married secondary      no   58932      no     no telephone     7    jul  2008
## # ... with 45,201 more rows, and 7 more variables: date <dttm>, duration <int>, campaign <int>,
## #   pdays <int>, previous <int>, poutcome <fctr>, y <fctr>
```

You can order a data frame by one or more than one variables.

Ordering data frame bank by `age` first and descending `balance` afterward requires:



```r
bank %>% arrange(age, desc(balance))
```

```
## # A tibble: 45,211 × 20
##       id   age     job marital education default balance housing   loan   contact   day  month  year
##    <int> <int>  <fctr>  <fctr>    <fctr>  <fctr>   <int>  <fctr> <fctr>    <fctr> <int> <fctr> <int>
## 1  40737    18 student  single   primary      no    1944      no     no telephone    10    aug  2009
## 2  40888    18 student  single   primary      no     608      no     no  cellular    12    aug  2009
## 3  42275    18 student  single   primary      no     608      no     no  cellular    13    nov  2009
## 4  44645    18 student  single   unknown      no     438      no     no  cellular     1    sep  2010
## 5  43638    18 student  single   unknown      no     348      no     no  cellular     5    may  2010
## 6  42147    18 student  single secondary      no     156      no     no  cellular     4    nov  2009
## 7  40745    18 student  single   unknown      no     108      no     no  cellular    10    aug  2009
## 8  41488    18 student  single   unknown      no     108      no     no  cellular     8    sep  2009
## 9  42955    18 student  single   unknown      no     108      no     no  cellular     9    feb  2010
## 10 41223    18 student  single   unknown      no      35      no     no telephone    21    aug  2009
## # ... with 45,201 more rows, and 7 more variables: date <dttm>, duration <int>, campaign <int>,
## #   pdays <int>, previous <int>, poutcome <fctr>, y <fctr>
```
…
```r
# generate a variable indicating the total number of times each person has been contacted 
# during this campaign and during the previous ones 
mutate(bank, contacts_n = campaign + previous)
```

```
## # A tibble: 45,211 × 21
##       id   age          job  marital education default balance housing   loan contact   day  month  year
##    <int> <int>       <fctr>   <fctr>    <fctr>  <fctr>   <int>  <fctr> <fctr>  <fctr> <int> <fctr> <int>
## 1      1    58   management  married  tertiary      no    2143     yes     no unknown     5    may  2008
## 2      2    44   technician   single secondary      no      29     yes     no unknown     5    may  2008
## 3      3    33 entrepreneur  married secondary      no       2     yes    yes unknown     5    may  2008
## 4      4    47  blue-collar  married   unknown      no    1506     yes     no unknown     5    may  2008
## 5      5    33      unknown   single   unknown      no       1      no     no unknown     5    may  2008
## 6      6    35   management  married  tertiary      no     231     yes     no unknown     5    may  2008
## 7      7    28   management   single  tertiary      no     447     yes    yes unknown     5    may  2008
## 8      8    42 entrepreneur divorced  tertiary     yes       2     yes     no unknown     5    may  2008
## 9      9    58      retired  married   primary      no     121     yes     no unknown     5    may  2008
## 10    10    43   technician   single secondary      no     593     yes     no unknown     5    may  2008
## # ... with 45,201 more rows, and 8 more variables: date <dttm>, duration <int>, campaign <int>,
## #   pdays <int>, previous <int>, poutcome <fctr>, y <fctr>, contacts_n <int>
```

`mutate()` allows you to refer to columns that you just created:


```r
# generate two variable: one indicating the year of birth and one the year of birth without century 
bank %>% mutate(year_of_birth = year - age, year_of_birth_no_century = year_of_birth - 1900)
```

```
## # A tibble: 45,211 × 22
##       id   age          job  marital education default balance housing   loan contact   day  month  year
##    <int> <int>       <fctr>   <fctr>    <fctr>  <fctr>   <int>  <fctr> <fctr>  <fctr> <int> <fctr> <int>
## 1      1    58   management  married  tertiary      no    2143     yes     no unknown     5    may  2008
## 2      2    44   technician   single secondary      no      29     yes     no unknown     5    may  2008
## 3      3    33 entrepreneur  married secondary      no       2     yes    yes unknown     5    may  2008
## 4      4    47  blue-collar  married   unknown      no    1506     yes     no unknown     5    may  2008
## 5      5    33      unknown   single   unknown      no       1      no     no unknown     5    may  2008
## 6      6    35   management  married  tertiary      no     231     yes     no unknown     5    may  2008
## 7      7    28   management   single  tertiary      no     447     yes    yes unknown     5    may  2008
## 8      8    42 entrepreneur divorced  tertiary     yes       2     yes     no unknown     5    may  2008
## 9      9    58      retired  married   primary      no     121     yes     no unknown     5    may  2008
## 10    10    43   technician   single secondary      no     593     yes     no unknown     5    may  2008
## # ... with 45,201 more rows, and 9 more variables: date <dttm>, duration <int>, campaign <int>,
## #   pdays <int>, previous <int>, poutcome <fctr>, y <fctr>, year_of_birth <int>,
## #   year_of_birth_no_century <dbl>
```
…
