…
The data frame contains dates as row names but data manipulation can be performed better on a variable. With a bit of `dplyr` code the new column can be added.


```r
IBM <- IBM %>% mutate(date = row.names(.)) %>% tbl_df 
IBM
```

```
## # A tibble: 2,518 × 7
##    IBM.Open IBM.High IBM.Low IBM.Close IBM.Volume IBM.Adjusted       date
##       <dbl>    <dbl>   <dbl>     <dbl>      <dbl>        <dbl>      <chr>
## 1     97.18    98.40   96.26     97.27    9196800     78.35465 2007-01-03
## 2     97.25    98.79   96.88     98.31   10524500     79.19241 2007-01-04
## 3     97.60    97.95   96.91     97.42    7221300     78.47548 2007-01-05
## 4     98.50    99.50   98.35     98.90   10340000     79.66768 2007-01-08
## 5     99.08   100.33   99.07    100.07   11108200     80.61016 2007-01-09
## 6     98.50    99.05   97.93     98.89    8744800     79.65962 2007-01-10
## 7     99.00    99.90   98.50     98.65    8000700     79.46630 2007-01-11
## 8     98.99    99.69   98.50     99.34    6636500     80.02211 2007-01-12
## 9     99.40   100.84   99.30    100.82    9602200     81.21431 2007-01-16
## 10   100.69   100.90   99.90    100.02    8200700     80.56988 2007-01-17
## # ... with 2,508 more rows
```

At this point, the new `date` column is a string and it must be parsed to be interpreted by R as a date.


```r
IBM <- IBM %>% mutate(date = ymd(date))
IBM
```

```
## # A tibble: 2,518 × 7
##    IBM.Open IBM.High IBM.Low IBM.Close IBM.Volume IBM.Adjusted       date
##       <dbl>    <dbl>   <dbl>     <dbl>      <dbl>        <dbl>     <date>
## 1     97.18    98.40   96.26     97.27    9196800     78.35465 2007-01-03
## 2     97.25    98.79   96.88     98.31   10524500     79.19241 2007-01-04
## 3     97.60    97.95   96.91     97.42    7221300     78.47548 2007-01-05
## 4     98.50    99.50   98.35     98.90   10340000     79.66768 2007-01-08
## 5     99.08   100.33   99.07    100.07   11108200     80.61016 2007-01-09
## 6     98.50    99.05   97.93     98.89    8744800     79.65962 2007-01-10
## 7     99.00    99.90   98.50     98.65    8000700     79.46630 2007-01-11
## 8     98.99    99.69   98.50     99.34    6636500     80.02211 2007-01-12
## 9     99.40   100.84   99.30    100.82    9602200     81.21431 2007-01-16
## 10   100.69   100.90   99.90    100.02    8200700     80.56988 2007-01-17
## # ... with 2,508 more rows
```

The `lubridate` package provide a set of function to extract single components of a date: `month()`, `day()` and `year()`. Using just `lubridate` and `dplyr` the components of a date can be added as new variables to a data frame.


```r
IBM <- IBM %>% mutate(month = month(date), day = day(date), year = year(date))
IBM
```

```
## # A tibble: 2,518 × 10
##    IBM.Open IBM.High IBM.Low IBM.Close IBM.Volume IBM.Adjusted       date month   day  year
##       <dbl>    <dbl>   <dbl>     <dbl>      <dbl>        <dbl>     <date> <dbl> <int> <dbl>
## 1     97.18    98.40   96.26     97.27    9196800     78.35465 2007-01-03     1     3  2007
## 2     97.25    98.79   96.88     98.31   10524500     79.19241 2007-01-04     1     4  2007
## 3     97.60    97.95   96.91     97.42    7221300     78.47548 2007-01-05     1     5  2007
## 4     98.50    99.50   98.35     98.90   10340000     79.66768 2007-01-08     1     8  2007
## 5     99.08   100.33   99.07    100.07   11108200     80.61016 2007-01-09     1     9  2007
## 6     98.50    99.05   97.93     98.89    8744800     79.65962 2007-01-10     1    10  2007
## 7     99.00    99.90   98.50     98.65    8000700     79.46630 2007-01-11     1    11  2007
## 8     98.99    99.69   98.50     99.34    6636500     80.02211 2007-01-12     1    12  2007
## 9     99.40   100.84   99.30    100.82    9602200     81.21431 2007-01-16     1    16  2007
## 10   100.69   100.90   99.90    100.02    8200700     80.56988 2007-01-17     1    17  2007
## # ... with 2,508 more rows
```
…
The last function shown here is `wday()`: it extracts the week day of a date, returning a number from Sunday (1) to Saturday (7).


```r
IBM <- IBM %>% mutate(weekday = wday(date))
IBM
```

```
## # A tibble: 2,518 × 11
##    IBM.Open IBM.High IBM.Low IBM.Close IBM.Volume IBM.Adjusted       date month   day  year weekday
##       <dbl>    <dbl>   <dbl>     <dbl>      <dbl>        <dbl>     <date> <dbl> <int> <dbl>   <dbl>
## 1     97.18    98.40   96.26     97.27    9196800     78.35465 2007-01-03     1     3  2007       4
## 2     97.25    98.79   96.88     98.31   10524500     79.19241 2007-01-04     1     4  2007       5
## 3     97.60    97.95   96.91     97.42    7221300     78.47548 2007-01-05     1     5  2007       6
## 4     98.50    99.50   98.35     98.90   10340000     79.66768 2007-01-08     1     8  2007       2
## 5     99.08   100.33   99.07    100.07   11108200     80.61016 2007-01-09     1     9  2007       3
## 6     98.50    99.05   97.93     98.89    8744800     79.65962 2007-01-10     1    10  2007       4
## 7     99.00    99.90   98.50     98.65    8000700     79.46630 2007-01-11     1    11  2007       5
## 8     98.99    99.69   98.50     99.34    6636500     80.02211 2007-01-12     1    12  2007       6
## 9     99.40   100.84   99.30    100.82    9602200     81.21431 2007-01-16     1    16  2007       3
## 10   100.69   100.90   99.90    100.02    8200700     80.56988 2007-01-17     1    17  2007       4
## # ... with 2,508 more rows
```
…
```
## [1] "patient" "date"    "time"    "code"    "value"
```

```r
diabetes <- diabetes %>% unite(datetime, date, time)
diabetes
```

```
## # A tibble: 29,297 × 4
##    patient         datetime  code value
## *    <chr>            <chr> <int> <chr>
## 1       01  04-21-1991_9:09    58   100
## 2       01  04-21-1991_9:09    33     9
## 3       01  04-21-1991_9:09    34    13
## 4       01 04-21-1991_17:08    62   119
## 5       01 04-21-1991_17:08    33     7
## 6       01 04-21-1991_22:51    48   123
## 7       01  04-22-1991_7:35    58   216
## 8       01  04-22-1991_7:35    33    10
## 9       01  04-22-1991_7:35    34    13
## 10      01 04-22-1991_13:40    33     2
## # ... with 29,287 more rows
```
…
```r
diabetes <- diabetes %>% mutate(datetime = mdy_hm(datetime))
```

```
## Warning: 7 failed to parse.
```

```r
diabetes
```

```
## # A tibble: 29,297 × 4
##    patient            datetime  code value
##      <chr>              <dttm> <int> <chr>
## 1       01 1991-04-21 09:09:00    58   100
## 2       01 1991-04-21 09:09:00    33     9
## 3       01 1991-04-21 09:09:00    34    13
## 4       01 1991-04-21 17:08:00    62   119
## 5       01 1991-04-21 17:08:00    33     7
## 6       01 1991-04-21 22:51:00    48   123
## 7       01 1991-04-22 07:35:00    58   216
## 8       01 1991-04-22 07:35:00    33    10
## 9       01 1991-04-22 07:35:00    34    13
## 10      01 1991-04-22 13:40:00    33     2
## # ... with 29,287 more rows
```
…
