…
More recent packages (i.e., `dplyr`) allow the researcher to develop by-group analyses in very simple and clear form:

```r
require(dplyr)

(res1 <- wea %>% 
  group_by(WindGustDir, RainToday) %>% 
  summarise(count = n(),
            mean_pressure9am = mean(Pressure9am),
            mean_pressure3pm =mean(Pressure3pm)))
```

```
## # A tibble: 29 x 5
## # Groups:   WindGustDir [?]
##    WindGustDir RainToday count mean_pressure9am mean_pressure3pm
##          <ord>    <fctr> <int>            <dbl>            <dbl>
##  1           N        No    19         1022.016         1018.842
##  2           N       Yes     2         1016.350         1013.700
##  3         NNE        No     7         1023.071         1019.743
##  4         NNE       Yes     1         1013.900         1009.500
##  5          NE        No    14         1021.064         1017.500
##  6          NE       Yes     2         1011.750         1008.700
##  7         ENE        No    25         1021.084         1018.184
##  8         ENE       Yes     5         1010.780         1009.000
##  9           E        No    34         1021.632         1018.679
## 10           E       Yes     3         1020.433         1018.267
## # ... with 19 more rows
```
…
